[gd_scene load_steps=2 format=2]

[sub_resource type="GDScript" id=1]
script/source = "extends Node2D

export var bulletScene : PackedScene


func _ready():
	pass

func _unhandled_input(event: InputEvent):
	if (event.is_action_pressed(\"fire\")):
		var bullet = bulletScene.instance() as Node2D
		get_parent().add_child(bullet)
		bullet.global_position = self.global_position
		bullet.direction = (get_global_mouse_position() - global_position).normalized()
		bullet.rotation = bullet.direction.angle()
"

[node name="Spawner" type="Node2D"]
script = SubResource( 1 )
